^F:\КОДИКИ C++\OOPLAB1\DEBUG\DRAWTABLE.OBJ|F:\КОДИКИ C++\OOPLAB1\DEBUG\OOPLAB1.OBJ|F:\КОДИКИ C++\OOPLAB1\DEBUG\OOPLAB1.RES
/OUT:"F:\КОДИКИ C++\OOPLAB1\DEBUG\OOPLAB1.EXE" /INCREMENTAL /ILK:"DEBUG\OOPLAB1.ILK" /NOLOGO KERNEL32.LIB USER32.LIB GDI32.LIB WINSPOOL.LIB COMDLG32.LIB ADVAPI32.LIB SHELL32.LIB OLE32.LIB OLEAUT32.LIB UUID.LIB ODBC32.LIB ODBCCP32.LIB /MANIFEST /MANIFESTUAC:"level='asInvoker' uiAccess='false'" /manifest:embed /DEBUG /PDB:"F:\КОДИКИ C++\OOPLAB1\DEBUG\OOPLAB1.PDB" /SUBSYSTEM:WINDOWS /TLBID:1 /DYNAMICBASE /NXCOMPAT /IMPLIB:"F:\КОДИКИ C++\OOPLAB1\DEBUG\OOPLAB1.LIB" /MACHINE:X86 DEBUG\OOPLAB1.RES
DEBUG\DRAWTABLE.OBJ
DEBUG\OOPLAB1.OBJ
